…
The group_by() function is used to generate summary statistics from the data frame within strata defined by a variable. For example, in this air pollution dataset, you might want to know what the average annual level of PM2.5 is. So the stratum is the year, and that is something we can derive from the date variable. In conjunction with the group_by() function we often use the summarize() function (or summarise() for some parts of the world).

The general operation here is a combination of splitting a data frame into separate pieces defined by a variable or group of variables (group_by()), and then applying a summary function across those subsets (summarize()).


```r
days <- group_by(chicago, time)
summarize(days, pm25 = mean(pm25, na.rm = TRUE),
          o3median = max(o3median),
          .groups = "drop")
```

```
## # A tibble: 5,114 × 3
##      time  pm25 o3median
##     <dbl> <dbl>    <dbl>
##  1 -2556.   NaN    -19.6
##  2 -2556.   NaN    -19.0
##  3 -2554.   NaN    -20.2
##  4 -2554.   NaN    -19.7
##  5 -2552.   NaN    -19.2
##  6 -2552.   NaN    -17.6
##  7 -2550.   NaN    -15.4
##  8 -2550.   NaN    -12.2
##  9 -2548.   NaN    -20.1
## 10 -2548.   NaN    -18.6
## # ℹ 5,104 more rows
```
…
