Bookdown - A Short Introduction to R
…
The general operation here is a combination of splitting a data frame
into separate pieces defined by a variable or group of variables
(group_by()), and then applying a summary function across those subsets
(summarize()).

days <- group_by(chicago, time)
summarize(days, pm25 = mean(pm25, na.rm = TRUE),
          o3median = max(o3median),
          .groups = "drop")

## # A tibble: 5,114 × 3
##      time  pm25 o3median
##     <dbl> <dbl>    <dbl>
##  1 -2556.   NaN    -19.6
##  2 -2556.   NaN    -19.0
##  3 -2554.   NaN    -20.2
##  4 -2554.   NaN    -19.7
##  5 -2552.   NaN    -19.2
##  6 -2552.   NaN    -17.6
##  7 -2550.   NaN    -15.4
##  8 -2550.   NaN    -12.2
##  9 -2548.   NaN    -20.1
## 10 -2548.   NaN    -18.6
## # ℹ 5,104 more rows
…
